[1597842297,064][INFO]: Starting ChromeDriver 84.0.4147.30 (48b3e868b4cc0aa7e8149519690b6f6949e110a8-refs/branch-heads/4147@{#310}) on port 19659
[1597842297,064][INFO]: Please see https://chromedriver.chromium.org/security-considerations for suggestions on keeping ChromeDriver safe.
[1597842297,206][INFO]: [75bfe501862124439ffbf6f3eddd7374] COMMAND InitSession {
   "capabilities": {
      "firstMatch": [ {
         "acceptInsecureCerts": true,
         "browserName": "chrome",
         "goog:chromeOptions": {
            "args": [ "--proxy-bypass-list=\u003C-loopback>", "--disable-dev-shm-usage" ],
            "excludeSwitches": [ "enable-automation", "load-extension" ],
            "extensions": [  ],
            "prefs": {
               "credentials_enable_service": false,
               "download.default_directory": "/home/shax/IdeaProjects/selenium/build/downloads/1597842296970_610338_1",
               "plugins.always_open_pdf_externally": true
            }
         },
         "pageLoadStrategy": "normal"
      } ]
   },
   "desiredCapabilities": {
      "acceptInsecureCerts": true,
      "acceptSslCerts": true,
      "browserName": "chrome",
      "goog:chromeOptions": {
         "args": [ "--proxy-bypass-list=\u003C-loopback>", "--disable-dev-shm-usage" ],
         "excludeSwitches": [ "enable-automation", "load-extension" ],
         "extensions": [  ],
         "prefs": {
            "credentials_enable_service": false,
            "download.default_directory": "/home/shax/IdeaProjects/selenium/build/downloads/1597842296970_610338_1",
            "plugins.always_open_pdf_externally": true
         }
      },
      "handlesAlerts": true,
      "javascriptEnabled": true,
      "pageLoadStrategy": "normal",
      "takesScreenshot": true
   }
}
[1597842297,207][INFO]: Populating Preferences file: {
   "alternate_error_pages": {
      "enabled": false
   },
   "autofill": {
      "enabled": false
   },
   "browser": {
      "check_default_browser": false
   },
   "credentials_enable_service": false,
   "distribution": {
      "import_bookmarks": false,
      "import_history": false,
      "import_search_engine": false,
      "make_chrome_default_for_user": false,
      "skip_first_run_ui": true
   },
   "dns_prefetching": {
      "enabled": false
   },
   "download": {
      "default_directory": "/home/shax/IdeaProjects/selenium/build/downloads/1597842296970_610338_1"
   },
   "plugins": {
      "always_open_pdf_externally": true
   },
   "profile": {
      "content_settings": {
         "pattern_pairs": {
            "https://*,*": {
               "media-stream": {
                  "audio": "Default",
                  "video": "Default"
               }
            }
         }
      },
      "default_content_setting_values": {
         "geolocation": 1
      },
      "default_content_settings": {
         "geolocation": 1,
         "mouselock": 1,
         "notifications": 1,
         "popups": 1,
         "ppapi-broker": 1
      },
      "password_manager_enabled": false
   },
   "safebrowsing": {
      "enabled": false
   },
   "search": {
      "suggest_enabled": false
   },
   "translate": {
      "enabled": false
   }
}
[1597842297,207][INFO]: Populating Local State file: {
   "background_mode": {
      "enabled": false
   },
   "ssl": {
      "rev_checking": {
         "enabled": false
      }
   }
}
[1597842297,207][INFO]: Launching chrome: /usr/bin/google-chrome --disable-background-networking --disable-client-side-phishing-detection --disable-default-apps --disable-dev-shm-usage --disable-hang-monitor --disable-popup-blocking --disable-prompt-on-repost --disable-sync --enable-blink-features=ShadowDOMV0 --enable-logging --ignore-certificate-errors --log-level=0 --no-first-run --password-store=basic --proxy-bypass-list=<-loopback> --remote-debugging-port=0 --test-type=webdriver --use-mock-keychain --user-data-dir=/tmp/.com.google.Chrome.NaiR42 data:,
[1597842297,707][INFO]: resolved localhost to ["127.0.0.1"]
[1597842297,740][INFO]: resolved localhost to ["127.0.0.1"]
[1597842297,750][INFO]: [75bfe501862124439ffbf6f3eddd7374] RESPONSE InitSession {
   "capabilities": {
      "acceptInsecureCerts": true,
      "browserName": "chrome",
      "browserVersion": "84.0.4147.125",
      "chrome": {
         "chromedriverVersion": "84.0.4147.30 (48b3e868b4cc0aa7e8149519690b6f6949e110a8-refs/branch-heads/4147@{#310})",
         "userDataDir": "/tmp/.com.google.Chrome.NaiR42"
      },
      "goog:chromeOptions": {
         "debuggerAddress": "localhost:41665"
      },
      "networkConnectionEnabled": false,
      "pageLoadStrategy": "normal",
      "platformName": "linux",
      "proxy": {

      },
      "setWindowRect": true,
      "strictFileInteractability": false,
      "timeouts": {
         "implicit": 0,
         "pageLoad": 300000,
         "script": 30000
      },
      "unhandledPromptBehavior": "dismiss and notify",
      "webauthn:virtualAuthenticators": true
   },
   "sessionId": "75bfe501862124439ffbf6f3eddd7374"
}
[1597842297,809][INFO]: [75bfe501862124439ffbf6f3eddd7374] COMMAND SetWindowRect {
   "height": 1080,
   "width": 1920
}
[1597842297,809][INFO]: Waiting for pending navigations...
[1597842297,811][INFO]: Done waiting for pending navigations. Status: ok
[1597842297,913][INFO]: Waiting for pending navigations...
[1597842297,913][INFO]: Done waiting for pending navigations. Status: ok
[1597842297,913][INFO]: [75bfe501862124439ffbf6f3eddd7374] RESPONSE SetWindowRect {
   "height": 1010,
   "width": 1912,
   "x": 4,
   "y": 66
}
[1597842297,920][INFO]: [75bfe501862124439ffbf6f3eddd7374] COMMAND Navigate {
   "url": "https://www.open.ru/"
}
[1597842297,920][INFO]: Waiting for pending navigations...
[1597842297,921][INFO]: Done waiting for pending navigations. Status: ok
[1597842299,038][INFO]: Waiting for pending navigations...
[1597842302,585][INFO]: Done waiting for pending navigations. Status: ok
[1597842302,585][INFO]: [75bfe501862124439ffbf6f3eddd7374] RESPONSE Navigate
[1597842302,633][INFO]: [75bfe501862124439ffbf6f3eddd7374] COMMAND FindElement {
   "using": "xpath",
   "value": "(//*[contains(@class,'main-page-exchange__row')][contains(.,'USD')]//*[@class='main-page-exchange__rate'])[1]"
}
[1597842302,633][INFO]: Waiting for pending navigations...
[1597842302,666][INFO]: Done waiting for pending navigations. Status: ok
[1597842302,680][INFO]: Waiting for pending navigations...
[1597842302,682][INFO]: Done waiting for pending navigations. Status: ok
[1597842302,682][INFO]: [75bfe501862124439ffbf6f3eddd7374] RESPONSE FindElement {
   "element-6066-11e4-a52e-4f735466cecf": "f8df05b3-5d37-4f1b-af1f-519bd3f64392"
}
[1597842302,686][INFO]: [75bfe501862124439ffbf6f3eddd7374] COMMAND GetElementTagName {
   "id": "f8df05b3-5d37-4f1b-af1f-519bd3f64392"
}
[1597842302,686][INFO]: Waiting for pending navigations...
[1597842302,687][INFO]: Done waiting for pending navigations. Status: ok
[1597842302,688][INFO]: Waiting for pending navigations...
[1597842302,688][INFO]: Done waiting for pending navigations. Status: ok
[1597842302,688][INFO]: [75bfe501862124439ffbf6f3eddd7374] RESPONSE GetElementTagName "span"
[1597842302,690][INFO]: [75bfe501862124439ffbf6f3eddd7374] COMMAND GetElementText {
   "id": "f8df05b3-5d37-4f1b-af1f-519bd3f64392"
}
[1597842302,690][INFO]: Waiting for pending navigations...
[1597842302,691][INFO]: Done waiting for pending navigations. Status: ok
[1597842302,701][INFO]: Waiting for pending navigations...
[1597842302,703][INFO]: Done waiting for pending navigations. Status: ok
[1597842302,703][INFO]: [75bfe501862124439ffbf6f3eddd7374] RESPONSE GetElementText "73,13"
[1597842302,707][INFO]: [75bfe501862124439ffbf6f3eddd7374] COMMAND FindElement {
   "using": "xpath",
   "value": "(//*[contains(@class,'main-page-exchange__row')][contains(.,'USD')]//*[@class='main-page-exchange__rate'])[2]"
}
[1597842302,707][INFO]: Waiting for pending navigations...
[1597842302,707][INFO]: Done waiting for pending navigations. Status: ok
[1597842302,716][INFO]: Waiting for pending navigations...
[1597842302,720][INFO]: Done waiting for pending navigations. Status: ok
[1597842302,721][INFO]: [75bfe501862124439ffbf6f3eddd7374] RESPONSE FindElement {
   "element-6066-11e4-a52e-4f735466cecf": "36d889a8-ce05-404d-ba02-f7e8a2d9d16e"
}
[1597842302,723][INFO]: [75bfe501862124439ffbf6f3eddd7374] COMMAND GetElementTagName {
   "id": "36d889a8-ce05-404d-ba02-f7e8a2d9d16e"
}
[1597842302,723][INFO]: Waiting for pending navigations...
[1597842302,724][INFO]: Done waiting for pending navigations. Status: ok
[1597842302,725][INFO]: Waiting for pending navigations...
[1597842302,725][INFO]: Done waiting for pending navigations. Status: ok
[1597842302,725][INFO]: [75bfe501862124439ffbf6f3eddd7374] RESPONSE GetElementTagName "span"
[1597842302,728][INFO]: [75bfe501862124439ffbf6f3eddd7374] COMMAND GetElementText {
   "id": "36d889a8-ce05-404d-ba02-f7e8a2d9d16e"
}
[1597842302,728][INFO]: Waiting for pending navigations...
[1597842302,728][INFO]: Done waiting for pending navigations. Status: ok
[1597842302,739][INFO]: Waiting for pending navigations...
[1597842302,743][INFO]: Done waiting for pending navigations. Status: ok
[1597842302,743][INFO]: [75bfe501862124439ffbf6f3eddd7374] RESPONSE GetElementText "73,65"
[1597842302,759][INFO]: [75bfe501862124439ffbf6f3eddd7374] COMMAND Quit {

}
[1597842302,809][INFO]: [75bfe501862124439ffbf6f3eddd7374] RESPONSE Quit
